<svg width="27" height="22" viewBox="0 0 27 22" fill="none" xmlns="http://www.w3.org/2000/svg">
<path d="M8.08796 7.47437V6.97437H7.58796H6.16721H5.66721V7.47437V14.4077V14.9077H6.16721H7.58796H8.08796V14.4077V7.47437Z" fill="white" stroke="#3E64FF"/>
<path d="M10.6454 15.5442V15.0442H10.1454H8.72466H8.22466V15.5442V18.2721V18.7721H8.72466H10.1454H10.6454V18.2721V15.5442Z" fill="white" stroke="#3E64FF"/>
<path d="M10.6454 7.47437V6.97437H10.1454H8.72466H8.22466V7.47437V14.4077V14.9077H8.72466H10.1454H10.6454V14.4077V7.47437Z" fill="white" stroke="#3E64FF"/>
<path d="M13.2596 7.47437V6.97437H12.7596H11.282H10.782V7.47437V14.4077V14.9077H11.282H12.7596H13.2596V14.4077V7.47437Z" fill="white" stroke="#3E64FF"/>
<path d="M8.08796 15.5442V15.0442H7.58796H6.16721H5.66721V15.5442V18.2721V18.7721H6.16721H7.58796H8.08796V18.2721V15.5442Z" fill="white" stroke="#3E64FF"/>
<path d="M1.22176 3.44623L1.23036 3.45483L1.28194 3.48612C1.78797 3.79306 2.41977 3.79306 2.9258 3.48612L2.97738 3.45483L2.98951 3.4427C3.18327 3.31086 3.34732 3.14129 3.47142 2.95148L3.47584 2.94472L3.48004 2.93783C3.94261 2.1779 3.69553 1.18761 2.93614 0.732355C2.17352 0.269412 1.19235 0.521589 0.733386 1.27559C0.282287 2.01668 0.506079 2.97685 1.22176 3.44623Z" fill="#3E64FF" stroke="#3E64FF"/>
<path d="M1.87344 3.83273L1.29124 3.7357V4.32593V21V21.5H1.79124H2.41638H2.91638V21V4.32593V3.7357L2.33418 3.83273C2.18401 3.85776 2.02361 3.85776 1.87344 3.83273Z" fill="#3E64FF" stroke="#3E64FF"/>
<path d="M5.53059 15.5442V15.0442H5.03059H3.553H3.053V15.5442V18.2721V18.7721H3.553H5.03059H5.53059V18.2721V15.5442Z" fill="white" stroke="#3E64FF"/>
<path d="M5.53059 7.47437V6.97437H5.03059H3.553H3.053V7.47437V14.4077V14.9077H3.553H5.03059H5.53059V14.4077V7.47437Z" fill="white" stroke="#3E64FF"/>
<path d="M13.2596 15.5442V15.0442H12.7596H11.282H10.782V15.5442V18.2721V18.7721H11.282H12.7596H13.2596V18.2721V15.5442Z" fill="white" stroke="#3E64FF"/>
<path d="M20.9885 7.47437V6.97437H20.4885H19.0109H18.5109V7.47437V14.4077V14.9077H19.0109H20.4885H20.9885V14.4077V7.47437Z" fill="white" stroke="#3E64FF"/>
<path d="M15.8169 15.5442V15.0442H15.3169H13.8962H13.3962V15.5442V18.2721V18.7721H13.8962H15.3169H15.8169V18.2721V15.5442Z" fill="white" stroke="#3E64FF"/>
<path d="M23.2618 7.47437V6.97437H22.7618H21.6251H21.1251V7.47437V14.4077V14.9077H21.6251H22.7618H23.2618V14.4077V7.47437Z" fill="white" stroke="#3E64FF"/>
<path d="M23.3861 3.48209L23.4022 3.49174L23.4138 3.49755C23.9166 3.79301 24.5389 3.7892 25.0386 3.48612L25.0902 3.45482L25.1023 3.44267C25.296 3.31086 25.4636 3.13857 25.5858 2.9399L25.5858 2.93991L25.5871 2.93783C26.0497 2.1779 25.8026 1.1876 25.0432 0.732353C24.2835 0.271187 23.2943 0.51846 22.8394 1.27729C22.3779 2.03757 22.6259 3.02764 23.3861 3.48209Z" fill="#3E64FF" stroke="#3E64FF"/>
<path d="M23.9806 3.83273L23.3984 3.7357V4.32593V21V21.5H23.8984H24.5236H25.0236V21V4.32593V3.7357L24.4414 3.83273C24.2912 3.85776 24.1308 3.85776 23.9806 3.83273Z" fill="#3E64FF" stroke="#3E64FF"/>
<path d="M23.2618 15.5442V15.0442H22.7618H21.6251H21.1251V15.5442V18.2721V18.7721H21.6251H22.7618H23.2618V18.2721V15.5442Z" fill="white" stroke="#3E64FF"/>
<path d="M20.9885 15.5442V15.0442H20.4885H19.0109H18.5109V15.5442V18.2721V18.7721H19.0109H20.4885H20.9885V18.2721V15.5442Z" fill="white" stroke="#3E64FF"/>
<path d="M15.8169 7.47437V6.97437H15.3169H13.8962H13.3962V7.47437V14.4077V14.9077H13.8962H15.3169H15.8169V14.4077V7.47437Z" fill="white" stroke="#3E64FF"/>
<path d="M18.3743 15.5442V15.0442H17.8743H16.4535H15.9535V15.5442V18.2721V18.7721H16.4535H17.8743H18.3743V18.2721V15.5442Z" fill="white" stroke="#3E64FF"/>
<path d="M18.3743 7.47437V6.97437H17.8743H16.4535H15.9535V7.47437V14.4077V14.9077H16.4535H17.8743H18.3743V14.4077V7.47437Z" fill="white" stroke="#3E64FF"/>
</svg>
