<svg width="20" height="28" viewBox="0 0 20 28" fill="none" xmlns="http://www.w3.org/2000/svg">
<path d="M8.75 3.92857V2.75C8.75 2.05964 9.30964 1.5 10 1.5V1.5C10.6904 1.5 11.25 2.05964 11.25 2.75V4" stroke="#404040" stroke-width="1.5"/>
<path d="M17.1607 18.477C15.3966 15.6081 15.2621 12.8283 15.849 9.80672C16.4167 6.88378 14.4364 4 11.4588 4H8.20728C5.60496 4.21945 3.65217 6.92368 4.07378 9.487C4.75806 12.2338 4.7221 14.29 2.87292 18.2289" stroke="#404040" stroke-width="1.5" stroke-linecap="round"/>
<ellipse cx="10" cy="19.625" rx="8.75" ry="1.875" stroke="#404040" stroke-width="1.5"/>
<path d="M12.5 25.25C12.5 25.25 12.0833 26.5 10 26.5C7.91667 26.5 7.5 25.25 7.5 25.25" stroke="#404040" stroke-width="1.4" stroke-linecap="round" stroke-linejoin="round"/>
</svg>
