{
  "migIndex": 1,
  "data": [
    {
      "path": "src/assets/fonts/Baloo2-Bold.ttf",
      "sha1": "85215f8711d06ac253f5c5daccb7873f3d593ace"
    },
    {
      "path": "src/assets/fonts/Baloo2-ExtraBold.ttf",
      "sha1": "6bda11fd73c22976ca1915b3502cbc8fd0d681fa"
    },
    {
      "path": "src/assets/fonts/Baloo2-Medium.ttf",
      "sha1": "346930c1a85c509907818bb0c424f01463041f25"
    },
    {
      "path": "src/assets/fonts/Baloo2-Regular.ttf",
      "sha1": "4a1fc0d6f7607f9595d9f3b1b89abbd342c7c25b"
    },
    {
      "path": "src/assets/fonts/Baloo2-SemiBold.ttf",
      "sha1": "88bbd7663a3efb4f6bdd76fa488c27a9ea8497eb"
    }
  ]
}
